; Engine configuration file.
; It's best edited using the editor UI and not directly,
; since the parameters that go here are not all obvious.
;
; Format:
;   [section] ; section goes between []
;   param=value ; assign values to parameters

config_version=4

_global_script_classes=[ {
"base": "DebugGeometry",
"class": "DebugCuboid",
"language": "GDScript",
"path": "res://addons/sehgel.debugdraw/DebugCuboid.gd"
}, {
"base": "ImmediateGeometry",
"class": "DebugGeometry",
"language": "GDScript",
"path": "res://addons/sehgel.debugdraw/DebugGeometry.gd"
}, {
"base": "DebugGeometry",
"class": "DebugLine",
"language": "GDScript",
"path": "res://addons/sehgel.debugdraw/DebugLine.gd"
}, {
"base": "DebugGeometry",
"class": "DebugPin",
"language": "GDScript",
"path": "res://addons/sehgel.debugdraw/DebugPin.gd"
}, {
"base": "DebugGeometry",
"class": "DebugSphere",
"language": "GDScript",
"path": "res://addons/sehgel.debugdraw/DebugSphere.gd"
}, {
"base": "DebugGeometry",
"class": "DebugWiredCuboid",
"language": "GDScript",
"path": "res://addons/sehgel.debugdraw/DebugWiredCuboid.gd"
} ]
_global_script_class_icons={
"DebugCuboid": "",
"DebugGeometry": "",
"DebugLine": "",
"DebugPin": "",
"DebugSphere": "",
"DebugWiredCuboid": ""
}

[application]

config/name="Towers"
config/icon="res://icon.png"

[autoload]

DD="*res://addons/sehgel.debugdraw/DebugDraw.gd"
Helper3D="*res://addons/vector-helpers/3DHelper.gd"

[rendering]

quality/driver/driver_name="GLES2"
vram_compression/import_etc=true
vram_compression/import_etc2=false
environment/default_environment="res://default_env.tres"
